<?xml version="1.0" standalone="no"?>
<svg width="567.429" height="387.116" viewBox="0 0 567.429 387.116" xmlns="http://www.w3.org/2000/svg" shape-rendering="crispEdges">
<title>
ping.svg
</title>
<desc>
Creator: ROOT Version 6.22/08
CreationDate: Wed Apr 14 11:25:31 2021</desc>
<defs>
</defs>
<rect x="0.5" y="0" width="566.929" height="386.616" fill="white"/>
<rect x="6.16929" y="3.86616" width="272.126" height="378.884" fill="white"/>
<rect x="33.3819" y="41.7546" width="217.701" height="303.107" fill="white"/>
<rect x="33.3819" y="41.7546" width="217.701" height="303.107" fill="none" stroke="black"/>
<path d="M33.3819,344.862h 217.701" fill="none" stroke="black"/>
<path d="M42.5013,335.769v 9.09322" fill="none" stroke="black"/>
<path d="M50.2624,340.315v 4.54661" fill="none" stroke="black"/>
<path d="M58.0236,340.315v 4.54661" fill="none" stroke="black"/>
<path d="M65.7848,340.315v 4.54661" fill="none" stroke="black"/>
<path d="M73.5459,340.315v 4.54661" fill="none" stroke="black"/>
<path d="M81.3071,335.769v 9.09322" fill="none" stroke="black"/>
<path d="M89.0683,340.315v 4.54661" fill="none" stroke="black"/>
<path d="M96.8294,340.315v 4.54661" fill="none" stroke="black"/>
<path d="M104.591,340.315v 4.54661" fill="none" stroke="black"/>
<path d="M112.352,340.315v 4.54661" fill="none" stroke="black"/>
<path d="M120.113,335.769v 9.09322" fill="none" stroke="black"/>
<path d="M127.874,340.315v 4.54661" fill="none" stroke="black"/>
<path d="M135.635,340.315v 4.54661" fill="none" stroke="black"/>
<path d="M143.396,340.315v 4.54661" fill="none" stroke="black"/>
<path d="M151.158,340.315v 4.54661" fill="none" stroke="black"/>
<path d="M158.919,335.769v 9.09322" fill="none" stroke="black"/>
<path d="M166.68,340.315v 4.54661" fill="none" stroke="black"/>
<path d="M174.441,340.315v 4.54661" fill="none" stroke="black"/>
<path d="M182.202,340.315v 4.54661" fill="none" stroke="black"/>
<path d="M189.963,340.315v 4.54661" fill="none" stroke="black"/>
<path d="M197.725,335.769v 9.09322" fill="none" stroke="black"/>
<path d="M205.486,340.315v 4.54661" fill="none" stroke="black"/>
<path d="M213.247,340.315v 4.54661" fill="none" stroke="black"/>
<path d="M221.008,340.315v 4.54661" fill="none" stroke="black"/>
<path d="M228.769,340.315v 4.54661" fill="none" stroke="black"/>
<path d="M236.53,335.769v 9.09322" fill="none" stroke="black"/>
<path d="M42.5013,335.769v 9.09322" fill="none" stroke="black"/>
<path d="M34.7401,340.315v 4.54661" fill="none" stroke="black"/>
<path d="M236.53,335.769v 9.09322" fill="none" stroke="black"/>
<path d="M244.292,340.315v 4.54661" fill="none" stroke="black"/>
<text xml:space="preserve" x="39.4865" y="356.564" fill="black" font-size="9.23799" font-family="Helvetica">0</text>
<text xml:space="preserve" x="76.0364" y="356.564" fill="black" font-size="9.23799" font-family="Helvetica">50</text>
<text xml:space="preserve" x="112.586" y="356.564" fill="black" font-size="9.23799" font-family="Helvetica">100</text>
<text xml:space="preserve" x="151.573" y="356.564" fill="black" font-size="9.23799" font-family="Helvetica">150</text>
<text xml:space="preserve" x="189.747" y="356.564" fill="black" font-size="9.23799" font-family="Helvetica">200</text>
<text xml:space="preserve" x="228.734" y="356.564" fill="black" font-size="9.23799" font-family="Helvetica">250</text>
<text xml:space="preserve" x="110.962" y="368.748" fill="black" font-size="9.23799" font-family="Helvetica"> # of responses</text>
<path d="M33.3819,344.862v -303.107" fill="none" stroke="black"/>
<path d="M39.9129,319.603h -6.53102" fill="none" stroke="black"/>
<path d="M36.6474,306.973h -3.26551" fill="none" stroke="black"/>
<path d="M36.6474,294.344h -3.26551" fill="none" stroke="black"/>
<path d="M36.6474,281.715h -3.26551" fill="none" stroke="black"/>
<path d="M39.9129,269.085h -6.53102" fill="none" stroke="black"/>
<path d="M36.6474,256.456h -3.26551" fill="none" stroke="black"/>
<path d="M36.6474,243.826h -3.26551" fill="none" stroke="black"/>
<path d="M36.6474,231.197h -3.26551" fill="none" stroke="black"/>
<path d="M39.9129,218.567h -6.53102" fill="none" stroke="black"/>
<path d="M36.6474,205.938h -3.26551" fill="none" stroke="black"/>
<path d="M36.6474,193.308h -3.26551" fill="none" stroke="black"/>
<path d="M36.6474,180.679h -3.26551" fill="none" stroke="black"/>
<path d="M39.9129,168.049h -6.53102" fill="none" stroke="black"/>
<path d="M36.6474,155.42h -3.26551" fill="none" stroke="black"/>
<path d="M36.6474,142.79h -3.26551" fill="none" stroke="black"/>
<path d="M36.6474,130.161h -3.26551" fill="none" stroke="black"/>
<path d="M39.9129,117.531h -6.53102" fill="none" stroke="black"/>
<path d="M36.6474,104.902h -3.26551" fill="none" stroke="black"/>
<path d="M36.6474,92.2725h -3.26551" fill="none" stroke="black"/>
<path d="M36.6474,79.643h -3.26551" fill="none" stroke="black"/>
<path d="M39.9129,67.0135h -6.53102" fill="none" stroke="black"/>
<path d="M39.9129,319.603h -6.53102" fill="none" stroke="black"/>
<path d="M36.6474,332.232h -3.26551" fill="none" stroke="black"/>
<path d="M39.9129,67.0135h -6.53102" fill="none" stroke="black"/>
<path d="M36.6474,54.384h -3.26551" fill="none" stroke="black"/>
<text xml:space="preserve" x="21.6177" y="323.263" fill="black" font-size="9.23799" font-family="Helvetica">22</text>
<text xml:space="preserve" x="21.6177" y="272.906" fill="black" font-size="9.23799" font-family="Helvetica">24</text>
<text xml:space="preserve" x="21.6177" y="221.736" fill="black" font-size="9.23799" font-family="Helvetica">26</text>
<text xml:space="preserve" x="21.6177" y="170.566" fill="black" font-size="9.23799" font-family="Helvetica">28</text>
<text xml:space="preserve" x="21.6177" y="120.208" fill="black" font-size="9.23799" font-family="Helvetica">30</text>
<text xml:space="preserve" x="21.6177" y="69.8509" fill="black" font-size="9.23799" font-family="Helvetica">32</text>
<g transform="rotate(-90,16.7444,220.111)">
<text xml:space="preserve" x="16.7444" y="220.111" fill="black" font-size="9.23799" font-family="Helvetica"> Duration, ms</text>
</g>
<path d="M43.2774,218.567l 0.776117, -50.5179l 0.776117, -50.5179l 0.776117, 50.5179l 0.776117, 25.2589l 0.776117, -50.5179l 0.776117, -101.036l 0.776117, 126.295h 0.776117l 0.776117, -101.036l 0.776117, 101.036h 0.776117l 0.646764, -126.295"
 fill="none" stroke="#630005"/>
<path d="M52.7201,41.7546l 0.646764, 126.295" fill="none" stroke="#630005"/>
<path d="M53.3669,168.049h 0.776117l 0.776117, -50.5179l 0.776117, 50.5179l 0.776117, -50.5179h 0.776117l 0.776117, 50.5179l 0.776117, -25.2589l 0.776117, -25.2589l 0.776117, 25.2589h 0.776117l 0.776117, 25.2589l 0.776117, -25.2589h 1.55223l
 0.776117, 25.2589h 3.10447l 0.776117, -25.2589h 0.776117l 0.776117, -50.5179l 0.776117, 50.5179h 1.55223l 0.776117, 25.2589l 0.776117, -25.2589l 0.776117, 25.2589l 0.776117, -75.7768l 0.776117, 25.2589l 0.776117, 50.5179l 0.776117, -75.7768l
 0.776117, 75.7768h 0.776117l 0.776117, -126.295l 0.776117, 75.7768l 0.776117, 50.5179l 0.776117, -50.5179l 0.776117, 50.5179h 0.776117l 0.776117, -50.5179l 0.776117, 50.5179l 0.776117, -25.2589l 0.776117, 25.2589l 0.776117, -126.295l 0.776117,
 101.036h 0.776117l 0.776117, 25.2589h 1.55223l 0.776117, -50.5179l 0.776117, 25.2589l 0.776117, 25.2589h 0.776117l 0.776117, -25.2589l 0.776117, 25.2589l 0.776117, -25.2589h 0.776117l 0.776117, 25.2589l 0.776117, -101.036l 0.776117, 75.7768l
 0.776117, 25.2589h 0.776117l 0.776117, -75.7768l 0.776117, 101.036l 0.776117, -25.2589h 1.55223l 0.776117, -101.036l 0.776117, 101.036h 0.776117l 0.776117, -75.7768l 0.776117, 75.7768l 0.776117, -25.2589l 0.344941, -101.036" fill="none"
 stroke="#630005"/>
<path d="M112.007,41.7546l 0.344941, 101.036" fill="none" stroke="#630005"/>
<path d="M112.352,142.79l 0.776117, 25.2589l 0.35278, -126.295" fill="none" stroke="#630005"/>
<path d="M114.37,41.7546l 0.310447, 101.036" fill="none" stroke="#630005"/>
<path d="M114.68,142.79h 0.776117l 0.776117, -50.5179l 0.776117, 50.5179h 0.776117l 0.776117, 25.2589l 0.776117, 25.2589l 0.776117, -25.2589l 0.554369, -126.295" fill="none" stroke="#630005"/>
<path d="M121.148,41.7546l 0.517411, 101.036" fill="none" stroke="#630005"/>
<path d="M121.665,142.79l 0.776117, 25.2589l 0.776117, -126.295l 0.776117, 126.295l 0.776117, -50.5179h 0.776117l 0.776117, 50.5179l 0.776117, 25.2589l 0.776117, -75.7768h 1.55223l 0.776117, -25.2589l 0.776117, 75.7768h 3.10447l 0.776117, -101.036l
 0.776117, 101.036h 1.55223l 0.776117, -25.2589l 0.776117, 50.5179l 0.776117, -25.2589l 0.776117, -25.2589l 0.776117, -75.7768l 0.776117, 75.7768l 0.776117, 25.2589l 0.776117, -101.036l 0.776117, 75.7768l 0.776117, -75.7768l 0.776117, 75.7768l
 0.620893, -101.036" fill="none" stroke="#630005"/>
<path d="M146.656,41.7546l 0.620893, 101.036" fill="none" stroke="#630005"/>
<path d="M147.277,142.79l 0.776117, -50.5179l 0.776117, 50.5179h 2.32835l 0.776117, -75.7768l 0.776117, 75.7768l 0.238805, -101.036" fill="none" stroke="#630005"/>
<path d="M154.023,41.7546l 0.238805, 101.036" fill="none" stroke="#630005"/>
<path d="M154.262,142.79l 0.776117, 25.2589h 2.32835l 0.776117, -101.036l 0.776117, 101.036l 0.149253, -126.295" fill="none" stroke="#630005"/>
<path d="M160.347,41.7546l 0.124179, 101.036" fill="none" stroke="#630005"/>
<path d="M160.471,142.79l 0.388058, -101.036" fill="none" stroke="#630005"/>
<path d="M164.074,41.7546l 0.277185, 126.295" fill="none" stroke="#630005"/>
<path d="M164.352,168.049l 0.776117, -50.5179l 0.776117, 50.5179l 0.776117, -25.2589l 0.776117, -25.2589l 0.291044, -75.7768" fill="none" stroke="#630005"/>
<path d="M168.879,41.7546l 0.129353, 25.2589" fill="none" stroke="#630005"/>
<path d="M169.008,67.0135l 0.776117, 50.5179l 0.776117, -25.2589l 0.776117, 50.5179l 0.776117, 50.5179l 0.776117, -25.2589h 0.776117l 0.776117, -50.5179l 0.776117, -25.2589l 0.776117, 75.7768l 0.776117, -50.5179l 0.291044, -75.7768" fill="none"
 stroke="#630005"/>
<path d="M177.934,41.7546l 0.388058, 126.295" fill="none" stroke="#630005"/>
<path d="M178.322,168.049l 0.776117, -25.2589l 0.776117, 25.2589l 0.0340402, -126.295" fill="none" stroke="#630005"/>
<path d="M182.74,41.7546l 0.238805, 101.036" fill="none" stroke="#630005"/>
<path d="M182.978,142.79h 0.776117l 0.344941, -101.036" fill="none" stroke="#630005"/>
<path d="M184.883,41.7546l 0.423336, 151.554" fill="none" stroke="#630005"/>
<path d="M185.307,193.308l 0.776117, -50.5179l 0.776117, -75.7768l 0.776117, 75.7768l 0.776117, 25.2589l 0.776117, -126.295l 0.776117, 101.036h 0.776117l 0.776117, -50.5179l 0.776117, 50.5179l 0.776117, 25.2589l 0.776117, -25.2589l 0.776117, 50.5179l
 0.776117, -101.036l 0.776117, 25.2589l 0.776117, 50.5179l 0.776117, -25.2589l 0.776117, 25.2589l 0.776117, -75.7768l 0.776117, 75.7768l 0.776117, -25.2589h 0.776117l 0.776117, -25.2589l 0.776117, 25.2589l 0.776117, 50.5179l 0.776117, -25.2589l
 0.776117, -25.2589l 0.776117, -25.2589l 0.776117, 25.2589l 0.776117, -25.2589l 0.776117, 25.2589l 0.776117, 25.2589l 0.776117, -50.5179l 0.776117, 50.5179h 0.776117l 0.776117, -25.2589l 0.776117, 25.2589l 0.776117, -25.2589l 0.776117, -75.7768h
 0.776117l 0.776117, 75.7768l 0.776117, 25.2589l 0.776117, -25.2589l 0.776117, 25.2589l 0.776117, -25.2589h 0.776117l 0.776117, -50.5179l 0.776117, 75.7768l 0.776117, 25.2589l 0.776117, -50.5179l 0.776117, 50.5179l 0.776117, -75.7768l 0.776117,
 75.7768l 0.776117, -25.2589l 0.776117, -25.2589h 0.776117l 0.776117, -75.7768l 0.776117, 101.036h 0.776117l 0.776117, 50.5179l 0.776117, -50.5179h 0.776117l 0.776117, 50.5179l 0.776117, -176.813l 0.776117, 101.036l 0.776117, 25.2589h 0.776117l
 0.776117, -75.7768l 0.388058, -50.5179" fill="none" stroke="#630005"/>
<path d="M239.413,41.7546l 0.221748, 101.036" fill="none" stroke="#630005"/>
<path d="M239.635,142.79l 0.776117, -75.7768l 0.776117, 25.2589" fill="none" stroke="#630005"/>
<path d="M43.2774,269.085l 0.776117, -25.2589l 0.776117, 75.7768l 0.776117, -75.7768l 0.776117, 25.2589h 0.776117l 0.142552, -227.33" fill="none" stroke="#e5ab17"/>
<path d="M50.0786,41.7546l 0.183817, 227.33" fill="none" stroke="#e5ab17"/>
<path d="M50.2624,269.085h 0.776117l 0.776117, -126.295h 0.776117l 0.776117, 126.295l 0.776117, -126.295l 0.776117, 101.036l 0.776117, 25.2589l 0.776117, -75.7768h 0.776117l 0.776117, 75.7768l 0.776117, -50.5179l 0.776117, 50.5179l 0.776117,
 -50.5179l 0.776117, -25.2589l 0.776117, 75.7768h 3.10447l 0.776117, -25.2589l 0.776117, -25.2589l 0.776117, 25.2589l 0.776117, -151.554l 0.776117, 202.072l 0.776117, -25.2589l 0.776117, -25.2589h 0.776117l 0.776117, 75.7768l 0.776117, -101.036l
 0.776117, 50.5179h 1.55223l 0.776117, -50.5179l 0.776117, 50.5179l 0.776117, 25.2589l 0.776117, -25.2589l 0.776117, 25.2589l 0.776117, -75.7768h 0.776117l 0.776117, 25.2589h 0.776117l 0.776117, 25.2589l 0.776117, -25.2589l 0.776117, 25.2589l
 0.776117, -50.5179l 0.776117, 50.5179l 0.776117, -75.7768l 0.776117, 50.5179h 0.776117l 0.776117, 25.2589l 0.776117, -25.2589l 0.776117, 25.2589l 0.776117, -25.2589l 0.776117, 50.5179l 0.776117, -101.036l 0.776117, 75.7768h 0.776117l 0.776117,
 -25.2589h 0.776117l 0.776117, 25.2589l 0.776117, -126.295l 0.776117, 126.295l 0.776117, -25.2589l 0.776117, 25.2589l 0.776117, -75.7768l 0.776117, 50.5179h 0.776117l 0.776117, -75.7768l 0.776117, 126.295l 0.776117, -25.2589h 0.776117l 0.776117,
 -202.072l 0.776117, 176.813l 0.776117, 25.2589h 2.32835l 0.776117, -25.2589l 0.776117, 25.2589l 0.776117, 50.5179l 0.776117, -75.7768h 0.776117l 0.776117, 25.2589h 2.32835l 0.776117, -176.813l 0.776117, 202.072h 0.776117l 0.776117, -151.554l
 0.776117, 101.036l 0.344941, -202.072" fill="none" stroke="#e5ab17"/>
<path d="M122.15,41.7546l 0.291044, 151.554" fill="none" stroke="#e5ab17"/>
<path d="M122.441,193.308l 0.776117, 75.7768h 0.776117l 0.776117, -101.036l 0.776117, 101.036h 0.776117l 0.776117, -101.036l 0.776117, 25.2589l 0.776117, 25.2589l 0.776117, 25.2589l 0.776117, 25.2589h 0.776117l 0.776117, -75.7768l 0.776117, 50.5179l
 0.776117, -25.2589l 0.776117, 25.2589l 0.776117, -75.7768l 0.776117, 126.295l 0.776117, -25.2589l 0.776117, -25.2589l 0.776117, -101.036h 0.776117l 0.0211188, -101.036" fill="none" stroke="#e5ab17"/>
<path d="M140.989,41.7546l 0.0796017, 101.036" fill="none" stroke="#e5ab17"/>
<path d="M141.068,142.79l 0.776117, 126.295l 0.776117, -25.2589l 0.776117, 25.2589l 0.776117, -50.5179l 0.776117, 50.5179l 0.776117, -25.2589h 0.776117l 0.776117, 75.7768l 0.776117, -25.2589l 0.776117, -50.5179l 0.776117, 25.2589h 0.776117l 0.776117,
 25.2589l 0.776117, -50.5179l 0.776117, 25.2589l 0.776117, 25.2589l 0.776117, -25.2589l 0.776117, -227.33l 0.776117, 202.072l 0.776117, 25.2589l 0.776117, -50.5179l 0.776117, 75.7768l 0.776117, 25.2589l 0.776117, -126.295l 0.776117, 75.7768l
 0.776117, -25.2589l 0.776117, 25.2589h 1.55223l 0.776117, -25.2589l 0.776117, 25.2589h 0.776117l 0.776117, -75.7768l 0.776117, 75.7768l 0.776117, -25.2589h 0.776117l 0.776117, 25.2589l 0.776117, -25.2589l 0.776117, -176.813l 0.776117, 202.072l
 0.776117, -25.2589l 0.776117, 50.5179l 0.776117, -50.5179h 0.776117l 0.776117, 25.2589h 0.776117l 0.776117, -25.2589l 0.776117, -25.2589l 0.776117, 50.5179h 0.776117l 0.776117, -25.2589h 0.776117l 0.776117, -176.813l 0.776117, 202.072h 1.55223l
 0.776117, -50.5179l 0.776117, 50.5179l 0.776117, -25.2589l 0.776117, 25.2589l 0.776117, -25.2589l 0.776117, 50.5179l 0.776117, -50.5179l 0.776117, -75.7768l 0.776117, 75.7768h 0.776117l 0.776117, -101.036l 0.776117, 126.295h 0.776117l 0.776117,
 -101.036l 0.776117, 101.036l 0.776117, 50.5179l 0.776117, -126.295l 0.776117, 75.7768l 0.776117, -202.072l 0.776117, 151.554l 0.776117, 25.2589l 0.776117, 25.2589l 0.776117, -25.2589l 0.776117, 25.2589l 0.776117, -25.2589l 0.776117, -25.2589l
 0.776117, 25.2589h 1.55223l 0.776117, 25.2589l 0.776117, -75.7768l 0.776117, 151.554l 0.776117, -75.7768l 0.776117, -25.2589l 0.776117, -151.554l 0.776117, 176.813l 0.776117, 25.2589l 0.776117, -101.036l 0.776117, 101.036l 0.776117, -25.2589h
 0.776117l 0.776117, 25.2589l 0.776117, -50.5179l 0.776117, 50.5179l 0.776117, -25.2589l 0.776117, 25.2589l 0.776117, -50.5179l 0.776117, -176.813l 0.388058, -25.2589" fill="none" stroke="#e5ab17"/>
<path d="M222.69,41.7546l 0.646764, 126.295" fill="none" stroke="#e5ab17"/>
<path d="M223.337,168.049l 0.776117, 75.7768l 0.776117, 25.2589l 0.776117, -50.5179l 0.776117, 75.7768l 0.776117, -25.2589l 0.776117, -25.2589l 0.776117, 50.5179h 0.776117l 0.776117, -101.036l 0.776117, 50.5179l 0.776117, -25.2589l 0.776117, 50.5179l
 0.776117, -227.33" fill="none" stroke="#e5ab17"/>
<path d="M234.616,41.7546l 0.362188, 176.813" fill="none" stroke="#e5ab17"/>
<path d="M234.978,218.567l 0.776117, 101.036l 0.776117, -50.5179l 0.776117, -25.2589l 0.776117, 25.2589h 0.776117l 0.776117, -25.2589h 0.776117l 0.776117, 25.2589" fill="none" stroke="#e5ab17"/>
<rect x="33.3819" y="41.7546" width="103.408" height="75.7768" fill="white"/>
<path d="M33.3819,117.531h 103.408" fill="none" stroke="black"/>
<path d="M136.79,117.531v -75.7768" fill="none" stroke="black"/>
<path d="M136.79,41.7546h -103.408" fill="none" stroke="black"/>
<path d="M33.3819,41.7546v 75.7768" fill="none" stroke="black"/>
<text xml:space="preserve" x="58.9798" y="62.5409" fill="black" font-size="6.94551" font-family="Helvetica">Google</text>
<path d="M37.2597,73.9597h 18.0964v -26.5219h -18.0964z" fill="white"/>
<path d="M37.2597,60.6988h 18.0964" fill="none" stroke="#630005"/>
<g stroke="black" stroke-width="1" fill="none">
<line x1="45.3079" y1="60.6988" x2="46.3079" y2="60.6988"/>
</g>
<text xml:space="preserve" x="58.9798" y="100.715" fill="black" font-size="6.94551" font-family="Helvetica">OpenDNS (Cisco)</text>
<path d="M37.2597,111.848h 18.0964v -26.5219h -18.0964z" fill="white"/>
<path d="M37.2597,98.5872h 18.0964" fill="none" stroke="#e5ab17"/>
<g stroke="black" stroke-width="1" fill="none">
<line x1="45.3079" y1="98.5872" x2="46.3079" y2="98.5872"/>
</g>
<rect x="289.634" y="3.86616" width="272.126" height="378.884" fill="white"/>
<rect x="316.846" y="41.7546" width="217.701" height="303.107" fill="white"/>
<rect x="316.846" y="41.7546" width="217.701" height="303.107" fill="none" stroke="black"/>
<path d="M365.829,155.916v -38.1144h 10.885v 38.1144h -10.885z" fill="white"/>
<path d="M365.829,155.916v -38.1144h 10.885v 38.1144h -10.885z" fill="none" stroke="#630005"/>
<path d="M365.829,54.384h 10.885" fill="none" stroke="#630005"/>
<path d="M365.829,205.938h 10.885" fill="none" stroke="#630005"/>
<path d="M371.272,54.384v 63.418" fill="none" stroke="#630005"/>
<path d="M371.272,155.916v 50.0212" fill="none" stroke="#630005"/>
<path d="M365.829,138.641h 10.885" fill="none" stroke="#630005"/>
<path d="M365.829,205.938h 10.885" fill="none" stroke="#630005"/>
<path d="M365.829,54.384h 10.885" fill="none" stroke="#630005"/>
<path d="M316.846,344.862h 217.701" fill="none" stroke="black"/>
<text xml:space="preserve" x="356.252" y="356.564" fill="black" font-size="9.65399" font-family="Helvetica">Google</text>
<text xml:space="preserve" x="443.972" y="356.564" fill="black" font-size="9.65399" font-family="Helvetica">OpenDNS (Cisco)</text>
<path d="M316.846,335.769v 9.09322" fill="none" stroke="black"/>
<path d="M425.697,335.769v 9.09322" fill="none" stroke="black"/>
<path d="M534.547,335.769v 9.09322" fill="none" stroke="black"/>
<path d="M316.846,344.862v -303.107" fill="none" stroke="black"/>
<path d="M323.377,319.603h -6.53102" fill="none" stroke="black"/>
<path d="M320.112,306.973h -3.26551" fill="none" stroke="black"/>
<path d="M320.112,294.344h -3.26551" fill="none" stroke="black"/>
<path d="M320.112,281.715h -3.26551" fill="none" stroke="black"/>
<path d="M323.377,269.085h -6.53102" fill="none" stroke="black"/>
<path d="M320.112,256.456h -3.26551" fill="none" stroke="black"/>
<path d="M320.112,243.826h -3.26551" fill="none" stroke="black"/>
<path d="M320.112,231.197h -3.26551" fill="none" stroke="black"/>
<path d="M323.377,218.567h -6.53102" fill="none" stroke="black"/>
<path d="M320.112,205.938h -3.26551" fill="none" stroke="black"/>
<path d="M320.112,193.308h -3.26551" fill="none" stroke="black"/>
<path d="M320.112,180.679h -3.26551" fill="none" stroke="black"/>
<path d="M323.377,168.049h -6.53102" fill="none" stroke="black"/>
<path d="M320.112,155.42h -3.26551" fill="none" stroke="black"/>
<path d="M320.112,142.79h -3.26551" fill="none" stroke="black"/>
<path d="M320.112,130.161h -3.26551" fill="none" stroke="black"/>
<path d="M323.377,117.531h -6.53102" fill="none" stroke="black"/>
<path d="M320.112,104.902h -3.26551" fill="none" stroke="black"/>
<path d="M320.112,92.2725h -3.26551" fill="none" stroke="black"/>
<path d="M320.112,79.643h -3.26551" fill="none" stroke="black"/>
<path d="M323.377,67.0135h -6.53102" fill="none" stroke="black"/>
<path d="M323.377,319.603h -6.53102" fill="none" stroke="black"/>
<path d="M320.112,332.232h -3.26551" fill="none" stroke="black"/>
<path d="M323.377,67.0135h -6.53102" fill="none" stroke="black"/>
<path d="M320.112,54.384h -3.26551" fill="none" stroke="black"/>
<text xml:space="preserve" x="305.082" y="323.263" fill="black" font-size="9.23799" font-family="Helvetica">22</text>
<text xml:space="preserve" x="305.082" y="272.906" fill="black" font-size="9.23799" font-family="Helvetica">24</text>
<text xml:space="preserve" x="305.082" y="221.736" fill="black" font-size="9.23799" font-family="Helvetica">26</text>
<text xml:space="preserve" x="305.082" y="170.566" fill="black" font-size="9.23799" font-family="Helvetica">28</text>
<text xml:space="preserve" x="305.082" y="120.208" fill="black" font-size="9.23799" font-family="Helvetica">30</text>
<text xml:space="preserve" x="305.082" y="69.8509" fill="black" font-size="9.23799" font-family="Helvetica">32</text>
<path d="M474.68,260.394v -41.0494h 10.885v 41.0494h -10.885z" fill="white"/>
<path d="M474.68,260.394v -41.0494h 10.885v 41.0494h -10.885z" fill="none" stroke="#e5ab17"/>
<path d="M474.68,155.42h 10.885" fill="none" stroke="#e5ab17"/>
<path d="M474.68,332.232h 10.885" fill="none" stroke="#e5ab17"/>
<path d="M480.122,155.42v 63.9245" fill="none" stroke="#e5ab17"/>
<path d="M480.122,260.394v 71.8386" fill="none" stroke="#e5ab17"/>
<path d="M474.68,243.438h 10.885" fill="none" stroke="#e5ab17"/>
<path d="M474.68,332.232h 10.885" fill="none" stroke="#e5ab17"/>
<path d="M474.68,155.42h 10.885" fill="none" stroke="#e5ab17"/></svg>
